<?xml version="1.0" encoding="UTF-8" standalone="no"?>
<!-- Created with Inkscape (http://www.inkscape.org/) -->

<svg
   width="33.716999mm"
   height="33.716999mm"
   viewBox="0 0 33.716999 33.716999"
   version="1.1"
   id="svg1"
   xmlns="http://www.w3.org/2000/svg"
   xmlns:svg="http://www.w3.org/2000/svg">
  <defs
     id="defs1" />
  <g
     id="layer1"
     transform="translate(-17.24387,-17.906907)">
    <g
       id="g1"
       transform="translate(-1.8068352e-4,1.17774)">
      <g
         style="fill:#3b82f6;fill-opacity:1"
         transform="matrix(-0.25556787,-0.06847921,-0.06847921,0.25556787,54.77336,22.818807)"
         id="Group-9-Copy-6">
        <g
           style="fill:#3b82f6;fill-opacity:1"
           transform="rotate(45,31.706907,78.996832)"
           id="Group">
          <path
             style="fill:#3b82f6;fill-opacity:1"
             id="Combined-Shape"
             d="M 62.668998,25.180693 34.099894,17.525625 C 31.840066,16.920106 30.498672,14.598448 31.103806,12.340057 31.70894,10.081666 34.031451,8.7417483 36.291279,9.3472674 L 61.991048,16.2335 c -0.0111,0.03998 -0.02201,0.08 -0.03273,0.120077 -0.764936,2.858983 -0.57555,5.973968 0.71068,8.827116 z m 29.995394,-0.728295 0.07025,0.01882 -8.944793,-15.4527919 -0.0012,-0.00199 c -1.461086,-2.526674 -0.596504,-5.7580885 1.931098,-7.2175663 2.529026,-1.46030071 5.76429,-0.5954425 7.227302,1.9320191 L 111.23114,35.317932 c 3.66576,5.401966 5.05249,12.29477 3.23407,19.081204 -0.96285,3.593396 -2.71883,6.763309 -5.03033,9.373141 0.45357,-6.938601 -1.45153,-13.682553 -5.16312,-19.267294 z" />
          <path
             style="fill:#3b82f6;fill-opacity:1"
             transform="matrix(-0.25881905,0.96592583,0.96592583,0.25881905,26.584418,-20.398942)"
             id="Combined-Shape-Copy-23"
             d="m 52.189946,38.546359 4.233429,0.01753 V 1.8483346 c 0,-2.33954594 1.895371,-4.2361227 4.23343,-4.2361227 2.338058,0 4.233429,1.89657676 4.233429,4.2361227 V 38.598957 l 4.23343,0.01753 V 7.6910605 c 0,-2.3395459 1.895371,-4.2361227 4.233429,-4.2361227 2.338058,0 4.23343,1.8965768 4.23343,4.2361227 V 38.651555 l 4.233429,0.01753 V 19.907669 c 0,-2.339546 1.895371,-4.236122 4.233429,-4.236122 2.338059,0 4.23343,1.896576 4.23343,4.236122 v 51.004195 h -0.0049 C 90.02946,83.59604 79.70531,93.799245 67.006949,93.799245 c -7.025833,0 -13.324858,-3.123467 -17.59399,-8.062444 L 23.634476,59.900439 c -2.062685,-2.067316 -2.060726,-5.416183 0.0044,-7.481082 2.063939,-2.063734 5.409016,-2.062505 7.471439,0.0027 l 0.0016,0.0016 12.611169,12.639483 V 6.6287467 c 0,-2.3395459 1.895371,-4.2361227 4.233429,-4.2361227 2.338059,0 4.23343,1.8965768 4.23343,4.2361227 z" />
        </g>
      </g>
      <path
         style="fill:#3b82f6;fill-opacity:1;stroke-width:0.264583"
         id="path11"
         d="m 37.52252,21.638925 1.35834,-3.732018 c 0.64076,0.176122 1.26653,0.387894 1.875,0.633024 l -1.35485,3.722437 c -0.60465,-0.252159 -1.23212,-0.461267 -1.87849,-0.623443 z m 5.51517,2.888126 2.81925,-2.804929 c 0.4768,0.428681 0.92929,0.883399 1.35516,1.361886 l -2.82339,2.809055 c -0.41646,-0.487026 -0.8681,-0.943644 -1.35102,-1.366012 z m 3.57667,5.053395 3.7519,-1.354745 c 0.23157,0.593855 0.43062,1.203723 0.59497,1.827463 l -3.7729,1.362329 c -0.14676,-0.630215 -0.3393,-1.243103 -0.57397,-1.835047 z" />
    </g>
  </g>
</svg>
